module github.com/353solutions/nlp

go 1.20

require (
	github.com/stretchr/testify v1.8.2
	go.uber.org/zap v1.24.0
	google.golang.org/grpc v1.54.0
	google.golang.org/protobuf v1.30.0
	gopkg.in/yaml.v3 v3.0.1
)

require (
	github.com/davecgh/go-spew v1.1.1 // indirect
	github.com/golang/protobuf v1.5.2 // indirect
	github.com/pmezard/go-difflib v1.0.0 // indirect
	go.uber.org/atomic v1.7.0 // indirect
	go.uber.org/multierr v1.6.0 // indirect
	golang.org/x/net v0.8.0 // indirect
	golang.org/x/sys v0.6.0 // indirect
	golang.org/x/text v0.8.0 // indirect
	google.golang.org/genproto v0.0.0-20230110181048-76db0878b65f // indirect
)
